%YAML 1.1
%TAG !u! tag:unity3d.com,2011:
--- !u!114 &11400000
MonoBehaviour:
  m_ObjectHideFlags: 0
  m_PrefabParentObject: {fileID: 0}
  m_PrefabInternal: {fileID: 0}
  m_GameObject: {fileID: 0}
  m_Enabled: 1
  m_EditorHideFlags: 0
  m_Script: {fileID: 11500000, guid: 2db418c525599374fb4fa88ac2546f65, type: 3}
  m_Name: AddonShot2
  m_EditorClassIdentifier: 
  Mesh: {fileID: 1744384738241182, guid: 879b1c88918b24e4aa55b49545df9f5d, type: 2}
  ExplosionMesh: {fileID: 1056979473487942, guid: ca00c509cc3640a45b8002a0496c3505,
    type: 2}
  Speed: 1
  Firerate: 0
  Health: 100
  bullet: {fileID: 11400000, guid: fa1ea09ba049aef44bc7814da764b1ef, type: 2}
