%YAML 1.1
%TAG !u! tag:unity3d.com,2011:
--- !u!114 &11400000
MonoBehaviour:
  m_ObjectHideFlags: 0
  m_PrefabParentObject: {fileID: 0}
  m_PrefabInternal: {fileID: 0}
  m_GameObject: {fileID: 0}
  m_Enabled: 1
  m_EditorHideFlags: 0
  m_Script: {fileID: 11500000, guid: 2223f7d3e0e60ac4f840cf99db04038c, type: 3}
  m_Name: SimpleEnemyShip
  m_EditorClassIdentifier: 
  Speed: 2
  Firerate: 2
  Health: 1
  DestroySound: {fileID: 8300000, guid: b5ce1ee3ceb94d24080b9c2b6bff2fea, type: 3}
