%YAML 1.1
%TAG !u! tag:unity3d.com,2011:
--- !u!114 &11400000
MonoBehaviour:
  m_ObjectHideFlags: 0
  m_PrefabParentObject: {fileID: 0}
  m_PrefabInternal: {fileID: 0}
  m_GameObject: {fileID: 0}
  m_Enabled: 1
  m_EditorHideFlags: 0
  m_Script: {fileID: 11500000, guid: d980efca3e0f208409c7e5d9e8be99cc, type: 3}
  m_Name: Shot1
  m_EditorClassIdentifier: 
  prefab: {fileID: 1452905304749062, guid: bfdeb42446c8bd644ab16bb8ba5dd0f8, type: 2}
  ObjMesh: {fileID: 1917560611952592, guid: bdaa28ac34426e141af57eb8b6eeb4db, type: 2}
  Speed: 15
  Damage: 1
  ShootSound: {fileID: 8300000, guid: 51a42979681fe074a8a005c5622dba9e, type: 3}
  CollisionSound: {fileID: 8300000, guid: c90e2982a6bfaac44a00230f8cab8079, type: 3}
