%YAML 1.1
%TAG !u! tag:unity3d.com,2011:
--- !u!114 &11400000
MonoBehaviour:
  m_ObjectHideFlags: 0
  m_PrefabParentObject: {fileID: 0}
  m_PrefabInternal: {fileID: 0}
  m_GameObject: {fileID: 0}
  m_Enabled: 1
  m_EditorHideFlags: 0
  m_Script: {fileID: 11500000, guid: 2223f7d3e0e60ac4f840cf99db04038c, type: 3}
  m_Name: EnemyShip1
  m_EditorClassIdentifier: 
  Mesh: {fileID: 1772087386431502, guid: fa19716d34c827f42b24ddfba9adce8c, type: 2}
  ExplosionMesh: {fileID: 1419177052212352, guid: 7fb240b366d863f4b97bf2689fdb10b3,
    type: 2}
  Speed: 2.5
  Firerate: 2
  Health: 1
